[{"IBAN":"SA07 72GX DN9C IHFJ M57C HWM1","USERID":13,"BALANCE":157.13},
{"IBAN":"FR34 3932 9350 41BE 0TCK SLYJ M51","USERID":12,"BALANCE":440.31},
{"IBAN":"MT29 DRMX 8738 0LIY 4FYW YKCQ OGXF RPS","USERID":10,"BALANCE":2671.46},
{"IBAN":"CH08 0870 7UCY DLIR DFFM L","USERID":13,"BALANCE":8706.05},
{"IBAN":"FR22 8285 1386 61H0 AYWK LOCI 094","USERID":7,"BALANCE":1575.68},
{"IBAN":"CY30 1338 0182 BG7P UPEH KFNV 4STW","USERID":3,"BALANCE":883.94},
{"IBAN":"GR09 5846 0628 GBY3 AFES A03C NGY","USERID":1,"BALANCE":7334.42},
{"IBAN":"ES20 5198 4701 1774 9501 1742","USERID":4,"BALANCE":4258.92},
{"IBAN":"TR20 3322 3GXB NWYK OMRL UC33 FO","USERID":15,"BALANCE":1596.31},
{"IBAN":"LB39 1059 CP88 9PQ2 7LQ3 CQIB BKGV","USERID":5,"BALANCE":3918.01},
{"IBAN":"FR23 3796 2070 93MV PQT1 O48E 238","USERID":6,"BALANCE":7753.41},
{"IBAN":"SI15 0786 1094 9795 637","USERID":12,"BALANCE":6724.65},
{"IBAN":"BH43 TJDN JPYG JZAH MTH9 VN","USERID":10,"BALANCE":7857.45},
{"IBAN":"IT90 E689 3350 665I D2ZD LZGI 52O","USERID":8,"BALANCE":1100.18},
{"IBAN":"GB65 MQBV 6647 4261 5559 15","USERID":14,"BALANCE":6394.51},
{"IBAN":"MU47 LCNA 0629 7574 4580 4591 907O WD","USERID":3,"BALANCE":3002.08},
{"IBAN":"HR95 3218 8708 1003 3827 6","USERID":4,"BALANCE":7244.91},
{"IBAN":"FR48 3296 9328 70CJ FZME O3KL 550","USERID":5,"BALANCE":9078.76},
{"IBAN":"LB45 9558 MTOM G9J0 KEXD RDPK TI8P","USERID":2,"BALANCE":4851.59},
{"IBAN":"CY93 1422 7621 5IF2 DDOX FERR FDIO","USERID":9,"BALANCE":7019.47},
{"IBAN":"GE97 PA94 7515 3870 2608 84","USERID":7,"BALANCE":2550.31},
{"IBAN":"NL38 FJFZ 9885 0059 32","USERID":9,"BALANCE":6493.14},
{"IBAN":"MU04 OYHO 3460 6449 5942 7954 356C TP","USERID":13,"BALANCE":7722.62},
{"IBAN":"FR13 2137 4573 026A UL2I DFGS Y49","USERID":11,"BALANCE":2662.24},
{"IBAN":"GB96 ASAT 3737 1089 7847 48","USERID":5,"BALANCE":7132.71},
{"IBAN":"EE62 4069 1711 0383 6671","USERID":4,"BALANCE":6389.49},
{"IBAN":"DE19 4032 6961 3055 3995 78","USERID":1,"BALANCE":1597.31},
{"IBAN":"AT68 7793 2957 5963 4675","USERID":3,"BALANCE":7062.31},
{"IBAN":"FR12 2904 5242 576F 2WUI F1DD L71","USERID":12,"BALANCE":6780.36},
{"IBAN":"AD92 6795 2174 UMAN UBD5 XJSD","USERID":3,"BALANCE":4246.43},
{"IBAN":"PS28 FNHR CE9O YQGP J4ME FOPV QQNV R","USERID":14,"BALANCE":8299.99},
{"IBAN":"DO52 9KIO 3158 6221 6595 0197 7058","USERID":15,"BALANCE":5767.85},
{"IBAN":"MD97 BRB9 QXQV U4EE IFAM D4Z8","USERID":4,"BALANCE":1986.88},
{"IBAN":"GE06 CU50 6128 9740 5354 72","USERID":8,"BALANCE":8025.21},
{"IBAN":"FI29 8559 8147 9377 37","USERID":3,"BALANCE":5607.43},
{"IBAN":"RS24 4051 8453 2179 0376 38","USERID":13,"BALANCE":3720.47},
{"IBAN":"LB33 4465 BONC LRQO RL5S CV79 OWZ3","USERID":9,"BALANCE":8630.73},
{"IBAN":"NO59 2666 5483 278","USERID":5,"BALANCE":341.14},
{"IBAN":"EE04 3063 4416 0825 0026","USERID":8,"BALANCE":2596.22},
{"IBAN":"MR07 0191 0985 0143 9701 1537 598","USERID":11,"BALANCE":6658.71},
{"IBAN":"CH50 7208 0AOY BAL4 Q1ED R","USERID":2,"BALANCE":5391.72},
{"IBAN":"PL85 6145 3738 0177 3314 1632 7578","USERID":15,"BALANCE":5216.9},
{"IBAN":"FR49 3190 9842 65GX QRKO AQAD X84","USERID":8,"BALANCE":3368.64},
{"IBAN":"DE23 4102 4180 1648 2645 04","USERID":4,"BALANCE":4128.37},
{"IBAN":"FR49 1055 5350 18LA P6RX YLCR 757","USERID":2,"BALANCE":6684.19},
{"IBAN":"LU81 129A OKB2 SPPA CWSD","USERID":11,"BALANCE":7976.28},
{"IBAN":"FR17 9380 4080 52M2 XEWV NWHJ S11","USERID":14,"BALANCE":8914.33},
{"IBAN":"LT55 7910 7829 8091 9614","USERID":7,"BALANCE":5180.38},
{"IBAN":"FR92 5720 3926 20KX C5JN VKPR P53","USERID":2,"BALANCE":6174.34},
{"IBAN":"CH27 6159 2PBS AA41 YEYH X","USERID":5,"BALANCE":5004.58},
{"IBAN":"BA85 8408 5115 5115 4712","USERID":9,"BALANCE":5038.5},
{"IBAN":"BH69 BZKF FOEY J3GV HNBM IS","USERID":11,"BALANCE":4021.65},
{"IBAN":"IS80 4085 6272 2471 3724 9418 52","USERID":6,"BALANCE":3145.53},
{"IBAN":"SK47 6780 3964 9195 5041 6561","USERID":15,"BALANCE":5611.3},
{"IBAN":"MR72 3354 0049 6664 9035 9121 786","USERID":1,"BALANCE":3603.02},
{"IBAN":"VG70 HRIG 2010 9941 2408 4105","USERID":11,"BALANCE":5545.62},
{"IBAN":"SA28 02A9 KGGS 81MW F5JG H01O","USERID":2,"BALANCE":898.47},
{"IBAN":"GL07 6507 7358 5385 76","USERID":2,"BALANCE":3275.39},
{"IBAN":"FO34 4576 5647 0594 64","USERID":1,"BALANCE":6484.29},
{"IBAN":"GL44 9776 5785 1953 54","USERID":1,"BALANCE":3058.91},
{"IBAN":"BG57 LKZK 0818 08TW DUKI W7","USERID":2,"BALANCE":2.25},
{"IBAN":"LB90 6014 SL9J S5HG XBC4 1ZTD LQTH","USERID":5,"BALANCE":4135.68},
{"IBAN":"BA83 7003 5305 4198 6072","USERID":5,"BALANCE":4864.65},
{"IBAN":"FR54 5789 6842 39IL YA8I R3WV 537","USERID":3,"BALANCE":5114.34},
{"IBAN":"BH06 OJFF DK3H 4J9M NHOM 41","USERID":3,"BALANCE":7969.39},
{"IBAN":"GB73 RTHS 6849 6873 8326 28","USERID":11,"BALANCE":53.73},
{"IBAN":"VG03 PDUR 2368 6576 4355 3390","USERID":2,"BALANCE":9471.3},
{"IBAN":"NO28 5193 3359 932","USERID":15,"BALANCE":9830.08},
{"IBAN":"VG84 GVUV 0294 4193 2837 5139","USERID":14,"BALANCE":5968.68},
{"IBAN":"FR47 2221 1332 19YB BIZW WWH8 Z88","USERID":8,"BALANCE":3227.07},
{"IBAN":"CY82 7120 9917 E98I 4JVQ VWET ZABN","USERID":5,"BALANCE":2731.01},
{"IBAN":"EE12 0205 1830 8452 3954","USERID":1,"BALANCE":1977.39},
{"IBAN":"FO77 8899 3085 4976 49","USERID":8,"BALANCE":8453.36},
{"IBAN":"KW39 TWPN YNFE 0JFR SG1Y REU6 1KRS VB","USERID":2,"BALANCE":1183.11},
{"IBAN":"RO88 STUB NM9G GAZM X9CF YBMM","USERID":9,"BALANCE":3173.97},
{"IBAN":"PK07 XXJJ 6W6G UFNF SN4I F4BX","USERID":14,"BALANCE":7734.1},
{"IBAN":"FR98 6993 1479 00GK ESJS GAGF O59","USERID":5,"BALANCE":2240.06},
{"IBAN":"CR33 1708 7991 6638 4597 1","USERID":4,"BALANCE":1405.84},
{"IBAN":"DE18 5166 6306 8724 8751 19","USERID":4,"BALANCE":8878.3},
{"IBAN":"BE17 3283 6052 3964","USERID":6,"BALANCE":5330.56},
{"IBAN":"FO22 5332 0038 9606 52","USERID":1,"BALANCE":6158.49},
{"IBAN":"FI51 6853 0831 6968 98","USERID":2,"BALANCE":9485.71},
{"IBAN":"SA28 94GN WJX2 6AWI TPF4 DAXW","USERID":2,"BALANCE":7496.11},
{"IBAN":"AL50 1259 3012 NPFZ DQ5K 1IJU V2BG","USERID":15,"BALANCE":8150.97},
{"IBAN":"GI26 MGTQ 1PHG IBJU DGCT 8JF","USERID":14,"BALANCE":3217.26},
{"IBAN":"GE25 JB28 9601 8741 2331 12","USERID":12,"BALANCE":5540.79},
{"IBAN":"RO33 CQHB LSZN 48IA AQUD NZCU","USERID":10,"BALANCE":4702.5},
{"IBAN":"HU66 6468 2146 8650 4284 3707 0818","USERID":13,"BALANCE":9529.18},
{"IBAN":"FR12 3926 2744 88KP MOOU 207C 297","USERID":11,"BALANCE":3889.29},
{"IBAN":"EE84 9920 5677 2062 9808","USERID":14,"BALANCE":9138.55},
{"IBAN":"GE13 CO00 5287 0758 3651 24","USERID":15,"BALANCE":8261.21},
{"IBAN":"HR06 1868 1205 0540 4630 6","USERID":11,"BALANCE":5196.03},
{"IBAN":"FR15 1109 2346 727R UEEV OWIK P18","USERID":1,"BALANCE":2410.76},
{"IBAN":"DO67 H2QR 1908 5943 9663 6718 1484","USERID":7,"BALANCE":6358.44},
{"IBAN":"BG19 HYCG 3354 36GS MDAT 0C","USERID":13,"BALANCE":6991.6},
{"IBAN":"FR10 7630 3750 09YI VI5R VE8Y H41","USERID":8,"BALANCE":5785.69},
{"IBAN":"SI13 4131 5091 6809 422","USERID":4,"BALANCE":4952.35},
{"IBAN":"BR04 5079 6668 4032 2076 5467 987E P","USERID":5,"BALANCE":3258.47},
{"IBAN":"AT18 9275 3774 0608 5449","USERID":1,"BALANCE":1374.78},
{"IBAN":"BA70 5120 8775 5844 3325","USERID":7,"BALANCE":218.37}]